Estimaciones
…
Estimacin por intervalos de confianza para la media

Supongamos que la base insurance_ampliada lleva el registro de una
poblacin.

Vamos a tomar una muestra aleatoria simple de 100 registros.

Para este muestreo usamos la funcin slice_sample de
dplyr:

m1 <- insurance_ampliada %>%
    slice_sample(n = 100, replace = F)
m1

## # A tibble: 100 x 9
##       ID  edad genero      IMC hijos fumador region    prima horas_sentado
##    <int> <dbl> <chr>     <dbl> <dbl> <chr>   <chr>     <dbl>         <dbl>
##  1   871    50 Masculino  36.2     0 no      suroeste  8458.          9.92
##  2   549    25 Femenino   28.6     0 no      noreste   3214.          8.96
##  3   204    27 Femenino   36.1     0 yes     sureste  37134.         11.0 
##  4  1119    33 Masculino  35.8     1 yes     sureste  38283.         12.1 
##  5  1299    33 Masculino  27.5     2 no      noroeste  5261.          8.03
##  6   207    59 Masculino  26.4     0 no      sureste  11743.          5.27
##  7     7    46 Femenino   33.4     1 no      sureste   8241.          8.33
##  8    68    40 Masculino  26.3     1 no      noroeste  6389.          8.55
##  9   360    18 Femenino   20.8     0 no      sureste   1608.          7.32
## 10   823    18 Femenino   31.1     0 no      sureste   1622.          8.12
## # i 90 more rows
…
